PSY 504: Advanced Statistics
…
.eq[
`$$\log\Big(\frac{\hat{\pi}_{Good}}{\hat{\pi}_{Excellent}}\Big) = \color{Red}{1.99}  - 0.003	 ~ \text{age} - 1.011 ~ \text{PhysActive}$$`
]

- The odds a 0 year old person who doesn't do physical activity rates themselves as having poor health vs. excellent health are 7.316 `(exp(1.99))`. 

```r
nhanes_adult %>%
  mutate(age_center=datawizard::center(Age))
```

```
## # A tibble: 6,465 × 6
##    HealthGen Education        Age PhysActive obs_num age_center
##    <fct>     <fct>          <int> <fct>        <int> <dw_trnsf>
##  1 Good      High School       34 No               1 -13.615159
##  2 Good      High School       34 No               2 -13.615159
##  3 Good      High School       34 No               3 -13.615159
##  4 Good      Some College      49 No               4   1.384841
##  5 Vgood     College Grad      45 Yes              5  -2.615159
##  6 Vgood     College Grad      45 Yes              6  -2.615159
##  7 Vgood     College Grad      45 Yes              7  -2.615159
##  8 Vgood     Some College      66 Yes              8  18.384841
##  9 Vgood     College Grad      58 Yes              9  10.384841
## 10 Fair      9 - 11th Grade    54 Yes             10   6.384841
## # … with 6,455 more rows
## # ℹ Use `print(n = ...)` to see more rows
```
…
