Advanced Statistics in Psychology - Lab 6 - Poisson - Answers
…
::: {.cell}

data_pos <- data_pos %>%
  mutate(reliten_recode = case_when(
    reliten==3 ~2, 
    reliten==2 ~ 3, 
    TRUE ~ reliten
  ))

data_pos %>%
  dplyr::select(reliten, reliten_recode)

::: {.cell-output .cell-output-stdout}

# A tibble: 2,044 × 2
   reliten reliten_recode
     <dbl>          <dbl>
 1       1              1
 2       4              4
 3       1              1
 4       1              1
 5       1              1
 6       4              4
 7       3              2
 8       1              1
 9       1              1
10       1              1
# ℹ 2,034 more rows
…
