PSY 504: Advanced Statistics
…
sample_size <- nrow(df) # length of dataset
perm_reps   <- 10000 # number of permutations you want to do

many.perm <- df    %>%
  # this function is in the infer package. What it is doing is creating 
  rep_sample_n(size = sample_size, replace = FALSE, reps = perm_reps) %>% 
  mutate(perm_treatment = sample(Group, size = n(), replace = FALSE))  %>%
  group_by(replicate, perm_treatment)

many.perm
```

```
## # A tibble: 400,000 × 4
## # Groups:   replicate, perm_treatment [20,000]
##    replicate Group     Value perm_treatment
##        <int> <chr>     <dbl> <chr>         
##  1         1 g_drug       79 g_drug        
##  2         1 g_drug       81 g_control     
##  3         1 g_control    69 g_drug        
##  4         1 g_control    81 g_drug        
##  5         1 g_control    75 g_control     
##  6         1 g_drug       74 g_drug        
##  7         1 g_drug       75 g_drug        
##  8         1 g_control    86 g_control     
##  9         1 g_control    78 g_control     
## 10         1 g_control    81 g_control     
## # … with 399,990 more rows
## # ℹ Use `print(n = ...)` to see more rows
```

---

```r
many.perm.means <- many.perm %>%
  summarise(mean_group = mean(Value), .groups = "drop")%>%
  group_by(replicate)

many.perm.means
```

```
## # A tibble: 20,000 × 3
## # Groups:   replicate [10,000]
##    replicate perm_treatment mean_group
##        <int> <chr>               <dbl>
##  1         1 g_control            77.0
##  2         1 g_drug               77.7
##  3         2 g_control            79.1
##  4         2 g_drug               75.6
##  5         3 g_control            78.1
##  6         3 g_drug               76.6
##  7         4 g_control            77.4
##  8         4 g_drug               77.4
##  9         5 g_control            77.4
## 10         5 g_drug               77.4
## # … with 19,990 more rows
## # ℹ Use `print(n = ...)` to see more rows
```
…
